[gd_scene load_steps=7 format=3 uid="uid://bqld51ioa5g8e"]

[ext_resource type="Texture2D" uid="uid://m72kdd4dq875" path="res://Assets/terrain.png" id="1_l5h1d"]
[ext_resource type="Script" path="res://TileMap.gd" id="2_8tahu"]
[ext_resource type="PackedScene" uid="uid://bdx5gnvvfucvu" path="res://Scenes/character_body_2d.tscn" id="3_86qfs"]
[ext_resource type="PackedScene" uid="uid://doyx38653nnir" path="res://Scenes/ui.tscn" id="4_p07u1"]

[sub_resource type="TileSetAtlasSource" id="TileSetAtlasSource_2w7ov"]
texture = ExtResource("1_l5h1d")
texture_region_size = Vector2i(24, 24)
0:0/0 = 0
1:0/0 = 0
2:0/0 = 0
3:0/0 = 0
4:0/0 = 0
0:1/0 = 0
1:1/0 = 0
2:1/0 = 0
3:1/0 = 0
4:1/0 = 0
0:2/0 = 0
1:2/0 = 0
2:2/0 = 0
3:2/0 = 0
4:2/0 = 0
0:3/0 = 0
1:3/0 = 0
2:3/0 = 0
3:3/0 = 0
4:3/0 = 0
0:4/0 = 0
1:4/0 = 0
2:4/0 = 0
3:4/0 = 0
4:4/0 = 0
0:5/0 = 0
1:5/0 = 0
2:5/0 = 0
3:5/0 = 0
4:5/0 = 0
0:6/0 = 0
1:6/0 = 0
2:6/0 = 0
3:6/0 = 0
4:6/0 = 0
5:0/0 = 0
6:0/0 = 0
5:1/0 = 0
5:2/0 = 0
6:1/0 = 0
6:2/0 = 0
5:3/0 = 0
6:3/0 = 0
5:6/0 = 0
5:5/0 = 0
5:4/0 = 0
6:4/0 = 0
6:5/0 = 0
6:6/0 = 0
0:7/0 = 0
1:7/0 = 0
2:7/0 = 0
3:7/0 = 0
4:7/0 = 0
5:7/0 = 0
6:7/0 = 0
7:7/0 = 0
7:6/0 = 0
7:5/0 = 0
7:4/0 = 0
7:3/0 = 0
7:1/0 = 0
7:2/0 = 0
7:0/0 = 0

[sub_resource type="TileSet" id="TileSet_nnkqc"]
sources/0 = SubResource("TileSetAtlasSource_2w7ov")

[node name="World" type="Node2D"]

[node name="TileMap" type="TileMap" parent="."]
tile_set = SubResource("TileSet_nnkqc")
format = 2
script = ExtResource("2_8tahu")

[node name="CharacterBody2D" parent="." instance=ExtResource("3_86qfs")]

[node name="UI" parent="." instance=ExtResource("4_p07u1")]
